freedomhouse
…
Los datos traducidos quedarán cargados durante toda la sesión de R:

puntajes_por_categoria %>%
  filter(pais_territorio == "Canad\u00e1")
#> # A tibble: 275 × 8
#>     anio pais_territorio iso2c iso3c continente   item  sub_item puntaje
#>    <int> <fct>           <fct> <fct> <fct>        <fct> <fct>      <int>
#>  1  2022 Canadá          CA    CAN   Las Américas A     A1             4
#>  2  2022 Canadá          CA    CAN   Las Américas A     A2             4
#>  3  2022 Canadá          CA    CAN   Las Américas A     A3             4
#>  4  2022 Canadá          CA    CAN   Las Américas B     B1             4
#>  5  2022 Canadá          CA    CAN   Las Américas B     B2             4
#>  6  2022 Canadá          CA    CAN   Las Américas B     B3             4
#>  7  2022 Canadá          CA    CAN   Las Américas B     B4             4
#>  8  2022 Canadá          CA    CAN   Las Américas C     C1             4
#>  9  2022 Canadá          CA    CAN   Las Américas C     C2             4
#> 10  2022 Canadá          CA    CAN   Las Américas C     C3             4
#> # ℹ 265 more rows
…
