…
## Example

This is a basic example which shows you how to join three tables

``` r
library(dplyr)
library(freedomhouse)

# Search for "trade union" in the sub_item_description column
country_scores %>%
  filter(grepl("trade union", sub_item_description))
#> # A tibble: 2,515 × 10
#>     year country_territory iso2c iso3c continent item  sub_item item_description
#>    <int> <fct>             <fct> <fct> <fct>     <fct> <fct>    <fct>           
#>  1  2012 Abkhazia          <NA>  <NA>  Asia      E     E3       Associational a…
#>  2  2013 Abkhazia          <NA>  <NA>  Asia      E     E3       Associational a…
#>  3  2014 Abkhazia          <NA>  <NA>  Asia      E     E3       Associational a…
#>  4  2015 Abkhazia          <NA>  <NA>  Asia      E     E3       Associational a…
#>  5  2016 Abkhazia          <NA>  <NA>  Asia      E     E3       Associational a…
#>  6  2017 Abkhazia          <NA>  <NA>  Asia      E     E3       Associational a…
#>  7  2018 Abkhazia          <NA>  <NA>  Asia      E     E3       Associational a…
#>  8  2019 Abkhazia          <NA>  <NA>  Asia      E     E3       Associational a…
#>  9  2020 Abkhazia          <NA>  <NA>  Asia      E     E3       Associational a…
#> 10  2021 Abkhazia          <NA>  <NA>  Asia      E     E3       Associational a…
#> # ℹ 2,505 more rows
#> # ℹ 2 more variables: sub_item_description <fct>, score <int>
…
