…
```r
> puntaje_pais %>%
  filter(pais == "Canad\u00e1")
# A tibble: 300 × 10
    anio pais   iso2c iso3c continente   categoria sub_categoria
   <int> <chr>  <fct> <fct> <chr>        <fct>     <fct>        
 1  2012 Canadá CA    CAN   Las Américas A         A1           
 2  2012 Canadá CA    CAN   Las Américas A         A2           
 3  2012 Canadá CA    CAN   Las Américas A         A3           
 4  2012 Canadá CA    CAN   Las Américas B         B1           
 5  2012 Canadá CA    CAN   Las Américas B         B2           
 6  2012 Canadá CA    CAN   Las Américas B         B3           
 7  2012 Canadá CA    CAN   Las Américas B         B4           
 8  2012 Canadá CA    CAN   Las Américas C         C1           
 9  2012 Canadá CA    CAN   Las Américas C         C2           
10  2012 Canadá CA    CAN   Las Américas C         C3           
# ℹ 290 more rows
# ℹ 3 more variables: descripcion_categoria <chr>,
#   descripcion_sub_categoria <chr>, puntaje <int>
# ℹ Use `print(n = ...)` to see more rows
```

```r
> puntaje_pais %>%
  filter(pais == "Canadá")
# A tibble: 300 × 10
    anio pais   iso2c iso3c continente   categoria sub_categoria
   <int> <chr>  <fct> <fct> <chr>        <fct>     <fct>        
 1  2012 Canadá CA    CAN   Las Américas A         A1           
 2  2012 Canadá CA    CAN   Las Américas A         A2           
 3  2012 Canadá CA    CAN   Las Américas A         A3           
 4  2012 Canadá CA    CAN   Las Américas B         B1           
 5  2012 Canadá CA    CAN   Las Américas B         B2           
 6  2012 Canadá CA    CAN   Las Américas B         B3           
 7  2012 Canadá CA    CAN   Las Américas B         B4           
 8  2012 Canadá CA    CAN   Las Américas C         C1           
 9  2012 Canadá CA    CAN   Las Américas C         C2           
10  2012 Canadá CA    CAN   Las Américas C         C3           
# ℹ 290 more rows
# ℹ 3 more variables: descripcion_categoria <chr>,
#   descripcion_sub_categoria <chr>, puntaje <int>
# ℹ Use `print(n = ...)` to see more rows
```
…
