Freedom House's Freedom in the World • freedomhouse
…
To install a translation, such as the Spanish translation, you can use:

remotes::install_github("pachadotdev/freedomhouse", subdir = "translations/es")

Example

This is a basic example which shows you how to join three tables

library(dplyr)
library(freedomhouse)

# Search for "trade union" in the sub_item_description column
country_scores %>%
  filter(grepl("trade union", sub_item_description))
#> # A tibble: 2,515 × 10
#>     year country_territory iso2c iso3c continent item  sub_item item_description
#>    <int> <fct>             <fct> <fct> <fct>     <fct> <fct>    <fct>           
#>  1  2012 Abkhazia          <NA>  <NA>  Asia      E     E3       Associational a…
#>  2  2013 Abkhazia          <NA>  <NA>  Asia      E     E3       Associational a…
#>  3  2014 Abkhazia          <NA>  <NA>  Asia      E     E3       Associational a…
#>  4  2015 Abkhazia          <NA>  <NA>  Asia      E     E3       Associational a…
#>  5  2016 Abkhazia          <NA>  <NA>  Asia      E     E3       Associational a…
#>  6  2017 Abkhazia          <NA>  <NA>  Asia      E     E3       Associational a…
#>  7  2018 Abkhazia          <NA>  <NA>  Asia      E     E3       Associational a…
#>  8  2019 Abkhazia          <NA>  <NA>  Asia      E     E3       Associational a…
#>  9  2020 Abkhazia          <NA>  <NA>  Asia      E     E3       Associational a…
#> 10  2021 Abkhazia          <NA>  <NA>  Asia      E     E3       Associational a…
#> # ℹ 2,505 more rows
#> # ℹ 2 more variables: sub_item_description <fct>, score <int>
…
> puntaje_pais %>%
  filter(pais == "Canad\u00e1")
# A tibble: 300 × 10
    anio pais   iso2c iso3c continente   categoria sub_categoria
   <int> <chr>  <fct> <fct> <chr>        <fct>     <fct>        
 1  2012 Canadá CA    CAN   Las Américas A         A1           
 2  2012 Canadá CA    CAN   Las Américas A         A2           
 3  2012 Canadá CA    CAN   Las Américas A         A3           
 4  2012 Canadá CA    CAN   Las Américas B         B1           
 5  2012 Canadá CA    CAN   Las Américas B         B2           
 6  2012 Canadá CA    CAN   Las Américas B         B3           
 7  2012 Canadá CA    CAN   Las Américas B         B4           
 8  2012 Canadá CA    CAN   Las Américas C         C1           
 9  2012 Canadá CA    CAN   Las Américas C         C2           
10  2012 Canadá CA    CAN   Las Américas C         C3           
# ℹ 290 more rows
# ℹ 3 more variables: descripcion_categoria <chr>,
#   descripcion_sub_categoria <chr>, puntaje <int>
# ℹ Use `print(n = ...)` to see more rows

> puntaje_pais %>%
  filter(pais == "Canadá")
# A tibble: 300 × 10
    anio pais   iso2c iso3c continente   categoria sub_categoria
   <int> <chr>  <fct> <fct> <chr>        <fct>     <fct>        
 1  2012 Canadá CA    CAN   Las Américas A         A1           
 2  2012 Canadá CA    CAN   Las Américas A         A2           
 3  2012 Canadá CA    CAN   Las Américas A         A3           
 4  2012 Canadá CA    CAN   Las Américas B         B1           
 5  2012 Canadá CA    CAN   Las Américas B         B2           
 6  2012 Canadá CA    CAN   Las Américas B         B3           
 7  2012 Canadá CA    CAN   Las Américas B         B4           
 8  2012 Canadá CA    CAN   Las Américas C         C1           
 9  2012 Canadá CA    CAN   Las Américas C         C2           
10  2012 Canadá CA    CAN   Las Américas C         C3           
# ℹ 290 more rows
# ℹ 3 more variables: descripcion_categoria <chr>,
#   descripcion_sub_categoria <chr>, puntaje <int>
# ℹ Use `print(n = ...)` to see more rows
…
